{
  "development": {
    "username": "postgres",
    "password": "123qwertyA",
    "database": "pg_exercise",
    "host": "127.0.0.1",
    "dialect": "postgres"
  },
  "test": {
    "username": "postgres",
    "password": "123qwertyA",
    "database": "pg_exercise",
    "host": "127.0.0.1",
    "dialect": "postgres"
  },
  "production": {
    "username": "postgres",
    "password": "123qwertyA",
    "database": "pg_exercise",
    "host": "127.0.0.1",
    "dialect": "postgres"
  }
}
